<svg width="12" height="13" viewBox="0 0 12 13" fill="none" xmlns="http://www.w3.org/2000/svg">
<circle cx="6" cy="6.24072" r="6" fill="url(#paint0_linear)"/>
<defs>
<linearGradient id="paint0_linear" x1="1.53333" y1="1.30739" x2="11.2" y2="11.5074" gradientUnits="userSpaceOnUse">
<stop stop-color="#011C58"/>
<stop offset="1" stop-color="#C70808"/>
</linearGradient>
</defs>
</svg>
