<svg width="399" height="49" viewBox="0 0 399 49" fill="none" xmlns="http://www.w3.org/2000/svg">
<ellipse cx="23.4998" cy="24.8447" rx="20.4998" ry="20.6311" fill="#C70808"/>
<path fill-rule="evenodd" clip-rule="evenodd" d="M43.5565 20.5576H3.44307C5.40367 11.2207 13.6386 4.21338 23.4998 4.21338C33.3609 4.21338 41.5959 11.2207 43.5565 20.5576Z" fill="#011C58"/>
<path d="M23.4997 9.57251L24.2768 11.9793H26.7913L24.757 13.4668L25.534 15.8736L23.4997 14.3861L21.4654 15.8736L22.2424 13.4668L20.2081 11.9793H22.7227L23.4997 9.57251Z" fill="#F3F3F3"/>
<path d="M31.2203 11.1804L31.8181 13.0318H33.7524L32.1875 14.176L32.7852 16.0274L31.2203 14.8832L29.6555 16.0274L30.2532 14.176L28.6883 13.0318H30.6226L31.2203 11.1804Z" fill="#F3F3F3"/>
<path d="M15.7791 11.1804L16.3768 13.0318H18.3111L16.7462 14.176L17.3439 16.0274L15.7791 14.8832L14.2142 16.0274L14.8119 14.176L13.2471 13.0318H15.1814L15.7791 11.1804Z" fill="#F3F3F3"/>
<path fill-rule="evenodd" clip-rule="evenodd" d="M43.3709 29.9353C43.7815 28.3069 43.9997 26.6014 43.9997 24.8445C43.9997 24.8445 43.9997 24.8445 43.9997 24.8445H3C3 24.8445 3 24.8445 3 24.8445C3 26.6014 3.2182 28.3069 3.62881 29.9353H43.3709Z" fill="#F3F3F3"/>
<path fill-rule="evenodd" clip-rule="evenodd" d="M8.88623 39.313C7.42687 37.8202 6.19162 36.1049 5.23532 34.2222H41.7645C40.8082 36.1049 39.5729 37.8202 38.1136 39.313H8.88623Z" fill="#F3F3F3"/>
<rect x="1.6129" y="2.82653" width="43.7739" height="44.0363" rx="21.8869" stroke="white" stroke-width="2.77419"/>
<path d="M81.8256 46.6687C82.3146 46.6687 82.7675 46.4111 83.0176 45.9909C83.2677 45.5706 83.278 45.0497 83.0446 44.6199L76.2184 32.0443C75.4485 30.5877 74.5178 29.3814 73.4187 28.4657C75.3379 27.6718 76.9586 26.5379 78.2454 25.0418C80.2713 22.6927 81.2447 19.7529 81.2447 16.3301C81.2447 12.1074 79.9233 8.68978 77.1164 6.30833C74.3776 3.91268 70.4879 2.82653 65.6765 2.82653H47.6174C46.8513 2.82653 46.2303 3.44755 46.2303 4.21362V45.2816C46.2303 46.0477 46.8513 46.6687 47.6174 46.6687H54.9684C55.7344 46.6687 56.3555 46.0477 56.3555 45.2816V30.1832H60.6408C61.9574 30.1832 62.9347 30.4111 63.6442 30.7824C64.2966 31.1239 64.929 31.7562 65.4917 32.8223L65.4917 32.8223L65.495 32.8285L72.4987 45.9353C72.74 46.3868 73.2102 46.6687 73.7221 46.6687H81.8256ZM69.962 12.6952L69.982 12.7109C70.8397 13.371 71.4089 14.5167 71.4089 16.5049C71.4089 18.4315 70.8511 19.6304 69.9524 20.3804C69.0027 21.1338 67.3227 21.6421 64.6346 21.6421H56.2976V11.426H64.6346C67.3318 11.426 69.014 11.9376 69.962 12.6952ZM87.8634 2.82653C87.0973 2.82653 86.4763 3.44755 86.4763 4.21362V45.2816C86.4763 46.0477 87.0973 46.6687 87.8634 46.6687H102.913C109.839 46.6687 115.401 44.7897 119.396 40.8544C123.431 36.9193 125.369 31.4758 125.369 24.7185C125.369 17.9633 123.432 12.536 119.393 8.6379C115.398 4.70456 109.837 2.82653 102.913 2.82653H87.8634ZM131.501 2.82653C130.735 2.82653 130.114 3.44755 130.114 4.21362V45.2816C130.114 46.0477 130.735 46.6687 131.501 46.6687H158.821C159.587 46.6687 160.208 46.0477 160.208 45.2816V39.3398C160.208 38.5738 159.587 37.9527 158.821 37.9527H140.181V28.7269H157.664C158.43 28.7269 159.051 28.1059 159.051 27.3398V21.4563C159.051 20.6903 158.43 20.0692 157.664 20.0692H140.181V11.5425H158.821C159.587 11.5425 160.208 10.9214 160.208 10.1554V4.21362C160.208 3.44755 159.587 2.82653 158.821 2.82653H131.501ZM199.794 46.6687C200.283 46.6687 200.736 46.4111 200.986 45.9909C201.236 45.5706 201.246 45.0497 201.013 44.6199L194.19 32.0515C194.189 32.0492 194.188 32.0469 194.187 32.0446C193.417 30.5879 192.486 29.3815 191.387 28.4657C193.306 27.6718 194.927 26.5379 196.214 25.0419C198.24 22.6927 199.213 19.7529 199.213 16.3301C199.213 12.1075 197.892 8.68991 195.085 6.30846C192.346 3.91271 188.456 2.82653 183.645 2.82653H165.586C164.82 2.82653 164.199 3.44755 164.199 4.21362V45.2816C164.199 46.0477 164.82 46.6687 165.586 46.6687H172.937C173.703 46.6687 174.324 46.0477 174.324 45.2816V30.1832H178.609C179.926 30.1832 180.903 30.4111 181.612 30.7824C182.265 31.1239 182.897 31.7562 183.46 32.8223L183.463 32.8285L190.467 45.9353C190.708 46.3868 191.178 46.6687 191.69 46.6687H199.794ZM187.93 12.6952L187.95 12.7109C188.808 13.371 189.377 14.5167 189.377 16.5049C189.377 18.4316 188.819 19.6305 187.921 20.3805C186.971 21.1339 185.291 21.6421 182.603 21.6421H174.266V11.426H182.603C185.3 11.426 186.982 11.9376 187.93 12.6952ZM115.128 24.7185C115.128 29.3294 114.005 32.531 112.005 34.5858C110.011 36.6337 106.915 37.778 102.45 37.778H96.7172V11.7172H102.45C106.916 11.7172 110.013 12.8575 112.007 14.8968C114.006 16.942 115.128 20.1284 115.128 24.7185Z" fill="#011C58" stroke="white" stroke-width="2.77419" stroke-linejoin="round"/>
<path d="M296.772 40.2033C298.259 38.0887 298.99 35.6508 298.99 32.9418C298.99 30.4476 298.346 28.267 296.965 26.5022C295.67 24.7987 293.822 23.4694 291.51 22.4702C289.271 21.4477 286.397 20.5505 282.919 19.7639C279.703 19.0317 277.604 18.2762 276.466 17.5559C275.515 16.9546 275.085 16.1728 275.085 15.0583C275.085 13.5888 275.632 12.547 276.749 11.7692L276.754 11.765C277.989 10.8953 279.761 10.3871 282.207 10.3871C286.271 10.3871 289.982 11.7234 293.378 14.4505C293.712 14.7187 294.151 14.8175 294.568 14.7183C294.984 14.619 295.332 14.3329 295.509 13.9429L297.998 8.46718C298.247 7.91967 298.114 7.27417 297.67 6.86872C295.842 5.19949 293.541 3.92838 290.812 3.02565C288.077 2.08199 285.206 1.6129 282.207 1.6129C278.924 1.6129 275.966 2.1837 273.364 3.3644C270.771 4.50246 268.706 6.1314 267.231 8.2709C265.752 10.4154 265.018 12.8477 265.018 15.5243C265.018 18.0697 265.61 20.2936 266.897 22.0968C268.15 23.8533 269.965 25.2343 272.253 26.2808C274.497 27.3074 277.359 28.1873 280.807 28.9369C284.063 29.6694 286.217 30.4091 287.408 31.1088L287.423 31.1171C288.449 31.7034 288.865 32.4452 288.865 33.466C288.865 34.765 288.346 35.7339 287.181 36.4971C285.995 37.2611 284.142 37.7294 281.454 37.7294C279.037 37.7294 276.808 37.3981 274.759 36.7472C272.764 36.1014 270.84 35.0742 268.987 33.6483C268.652 33.3901 268.217 33.2993 267.806 33.4016C267.395 33.5039 267.054 33.7882 266.879 34.1736L264.39 39.6493C264.13 40.2212 264.287 40.8963 264.772 41.2951C266.823 42.9798 269.304 44.2606 272.185 45.1592C275.07 46.0588 278.143 46.5036 281.396 46.5036C284.846 46.5036 287.903 45.9995 290.535 44.9484L290.546 44.9441C293.212 43.854 295.318 42.2868 296.772 40.2033ZM296.772 40.2033C296.771 40.2042 296.77 40.2052 296.77 40.2061L295.635 39.4078M296.772 40.2033C296.772 40.2026 296.773 40.2021 296.773 40.2014L295.635 39.4078M295.635 39.4078C294.362 41.233 292.49 42.6505 290.021 43.6602M295.635 39.4078C296.947 37.5437 297.603 35.3884 297.603 32.9418C297.603 30.6893 297.025 28.8252 295.867 27.3495C294.748 25.8738 293.108 24.6699 290.947 23.7379L290.021 43.6602M290.021 43.6602C287.59 44.6311 284.715 45.1165 281.396 45.1165C278.271 45.1165 275.338 44.6893 272.598 43.835C269.859 42.9806 267.543 41.7767 265.653 40.2233L290.021 43.6602ZM293.111 12.5139C289.787 10.1713 286.152 9 282.207 9C279.583 9 277.499 9.54369 275.956 10.6311C274.451 11.6796 273.698 13.1553 273.698 15.0583C273.698 16.6505 274.373 17.8738 275.724 18.7282C277.075 19.5825 279.371 20.3786 282.612 21.1165L293.111 12.5139ZM293.111 12.5139L292.983 12.795L294.246 13.3689L295.115 12.2874C295.023 12.2134 294.93 12.1403 294.838 12.068L296.735 7.8932C295.076 6.37864 292.954 5.19418 290.368 4.33981C287.783 3.4466 285.062 3 282.207 3C279.081 3 276.322 3.54369 273.93 4.63107L293.111 12.5139ZM224.881 2.13718C224.115 2.13718 223.494 2.7582 223.494 3.52427V27.9903C223.494 33.8131 225.003 38.4701 228.238 41.7253C231.475 44.9836 236.129 46.5036 241.956 46.5036C247.748 46.5036 252.38 44.9819 255.616 41.7253L255.622 41.7187C258.848 38.429 260.36 33.7787 260.36 27.9903V3.52427C260.36 2.7582 259.739 2.13718 258.973 2.13718H251.68C250.914 2.13718 250.293 2.7582 250.293 3.52427V28.3981C250.293 31.6915 249.511 33.9649 248.165 35.4456C246.838 36.9048 244.847 37.7294 241.956 37.7294C239.015 37.7294 237.005 36.9175 235.684 35.4983C234.343 34.0199 233.561 31.7309 233.561 28.3981V3.52427C233.561 2.7582 232.94 2.13718 232.174 2.13718H224.881ZM266.405 15.5243C266.405 13.1165 267.061 10.9612 268.373 9.05825L288.111 29.9126C286.722 29.0971 284.387 28.3204 281.107 27.5825C277.711 26.8447 274.952 25.9903 272.83 25.0194C270.708 24.0485 269.106 22.8058 268.026 21.2913C266.945 19.7767 266.405 17.8544 266.405 15.5243Z" fill="#C70808" stroke="white" stroke-width="2.77419" stroke-linejoin="round"/>
<path d="M212.822 46.8627C216.26 46.8627 219.032 44.0599 219.032 40.6212C219.032 37.1825 216.26 34.3797 212.822 34.3797C209.384 34.3797 206.611 37.1825 206.611 40.6212C206.611 44.0599 209.384 46.8627 212.822 46.8627Z" fill="#011C58" stroke="white" stroke-width="2.77419"/>
</svg>
