<svg width="46" height="46" viewBox="0 0 46 46" fill="none" xmlns="http://www.w3.org/2000/svg">
<path d="M39.2617 0H6.73828C3.0231 0 0 3.0231 0 6.73828V39.2617C0 42.9769 3.0231 46 6.73828 46H39.2617C42.9769 46 46 42.9769 46 39.2617V6.73828C46 3.0231 42.9769 0 39.2617 0ZM23.0898 35.0391C16.4017 35.0391 10.9609 29.5983 10.9609 22.9102C10.9609 16.2221 16.4017 10.7812 23.0898 10.7812C29.7779 10.7812 35.2188 16.2221 35.2188 22.9102C35.2188 29.5983 29.7779 35.0391 23.0898 35.0391ZM36.5664 13.4766C34.3372 13.4766 32.5234 11.6628 32.5234 9.43359C32.5234 7.20435 34.3372 5.39062 36.5664 5.39062C38.7957 5.39062 40.6094 7.20435 40.6094 9.43359C40.6094 11.6628 38.7957 13.4766 36.5664 13.4766Z" fill="white"/>
<path d="M36.5664 8.08594C35.8227 8.08594 35.2188 8.68993 35.2188 9.43359C35.2188 10.1773 35.8227 10.7812 36.5664 10.7812C37.3101 10.7812 37.9141 10.1773 37.9141 9.43359C37.9141 8.68993 37.3101 8.08594 36.5664 8.08594Z" fill="white"/>
<path d="M23.0898 13.4766C17.8887 13.4766 13.6562 17.709 13.6562 22.9102C13.6562 28.1113 17.8887 32.3438 23.0898 32.3438C28.291 32.3438 32.5234 28.1113 32.5234 22.9102C32.5234 17.709 28.291 13.4766 23.0898 13.4766Z" fill="white"/>
</svg>
