<svg width="40" height="41" viewBox="0 0 40 41" fill="none" xmlns="http://www.w3.org/2000/svg">
<g clip-path="url(#clip0)">
<path d="M20.0018 40.2419C31.047 40.2419 40.0009 31.288 40.0009 20.2428C40.0009 9.19756 31.047 0.243652 20.0018 0.243652C8.95659 0.243652 0.00268555 9.19756 0.00268555 20.2428C0.00268555 31.288 8.95659 40.2419 20.0018 40.2419Z" fill="white"/>
<path d="M38.8568 13.5722C38.8546 13.5658 38.8527 13.5605 38.8505 13.5548C36.2908 6.3376 29.7069 1.02762 21.7964 0.322754C24.8574 2.00085 25.7513 7.3175 26.5345 13.5723C27.0695 17.8446 27.0729 22.5521 26.5446 26.8297C25.7681 33.1183 24.8704 38.4725 21.7965 40.1576C29.7215 39.4515 36.3149 34.1231 38.8645 26.8865C38.8712 26.8673 38.8768 26.8484 38.8838 26.8297C39.6037 24.766 40 22.5499 40 20.2408C39.9997 17.9014 39.5945 15.6581 38.8568 13.5722Z" fill="#E12A28"/>
<path d="M27.5639 13.5724C26.7811 7.31755 24.8572 2.00098 21.796 0.322888C21.2039 0.270447 20.6052 0.240723 19.9995 0.240723C11.2993 0.240723 3.90035 5.79746 1.14913 13.555C1.14693 13.5607 1.14499 13.5661 1.14279 13.5724C0.405167 15.6583 0 17.9016 0 20.2408C0 22.5503 0.3963 24.7661 1.11628 26.8298C1.12295 26.8484 1.12895 26.8673 1.13553 26.8866C3.87594 34.6641 11.285 40.2403 19.9995 40.2403C20.6052 40.2403 21.2039 40.2106 21.7959 40.1575C24.8698 38.4725 26.7974 33.1183 27.5739 26.8297C28.1023 22.5519 28.0988 17.8447 27.5639 13.5724Z" fill="#ED3432"/>
<path d="M19.8208 9.99023L22.1965 17.3026H29.8856L23.6649 21.8211L26.0409 29.1342L19.8208 24.6146L13.6004 29.1342L15.9765 21.8211L9.75598 17.3026H17.4449L19.8208 9.99023Z" fill="#FDCE0C"/>
</g>
<defs>
<clipPath id="clip0">
<rect y="0.240723" width="40" height="40" fill="white"/>
</clipPath>
</defs>
</svg>
